{
  "project_info": {
    "project_number": "795994729259",
    "firebase_url": "https://fir-pushnotification-9d23d.firebaseio.com",
    "project_id": "fir-pushnotification-9d23d",
    "storage_bucket": "fir-pushnotification-9d23d.appspot.com"
  },
  "client": [
    {
      "client_info": {
        "mobilesdk_app_id": "1:795994729259:android:aec1f21ebb8dafcc",
        "android_client_info": {
          "package_name": "com.thecolourmoon.firebasepushnotification"
        }
      },
      "oauth_client": [
        {
          "client_id": "795994729259-s2rl1q50pj7q2sr1frq807qppmomru3g.apps.googleusercontent.com",
          "client_type": 1,
          "android_info": {
            "package_name": "com.thecolourmoon.firebasepushnotification",
            "certificate_hash": "509cd6e486b9c5b6f0e83b240f8fd729113791d6"
          }
        },
        {
          "client_id": "795994729259-6kl7ojq90uu5g0ja1fho4vft0acnls2c.apps.googleusercontent.com",
          "client_type": 1,
          "android_info": {
            "package_name": "com.thecolourmoon.firebasepushnotification",
            "certificate_hash": "b12a9967b3ee87ee4a38780fc3a70850c181aa1c"
          }
        },
        {
          "client_id": "795994729259-j7tn15asettt76tkvip9r8r63cvhssoh.apps.googleusercontent.com",
          "client_type": 3
        }
      ],
      "api_key": [
        {
          "current_key": "AIzaSyBo5Qum7aXBVXUm0rWSK6losit-S2-zOAg"
        }
      ],
      "services": {
        "analytics_service": {
          "status": 1
        },
        "appinvite_service": {
          "status": 2,
          "other_platform_oauth_client": [
            {
              "client_id": "795994729259-j7tn15asettt76tkvip9r8r63cvhssoh.apps.googleusercontent.com",
              "client_type": 3
            }
          ]
        },
        "ads_service": {
          "status": 2
        }
      }
    }
  ],
  "configuration_version": "1"
}